{
  "mdsDat": {
    "x": [
      0.1388830531586227,
      -0.1388830531586227
    ],
    "y": [
      0.0,
      0.0
    ],
    "topics": [
      1,
      2
    ],
    "cluster": [
      1,
      1
    ],
    "Freq": [
      54.941812145496,
      45.058187854504
    ]
  },
  "tinfo": {
    "Term": [
      "jahr",
      "gewalt",
      "mal",
      "neonazi",
      "er",
      "polizei",
      "haben",
      "zeit",
      "mensch",
      "tag",
      "hashtag",
      "ende",
      "innen",
      "wichtig",
      "geschichte",
      "passieren",
      "kommen",
      "leben",
      "punk",
      "leute",
      "auto",
      "erfahrung",
      "sagen",
      "osten",
      "nur",
      "horen",
      "jugendliche",
      "kennen",
      "sehen",
      "eltern",
      "jahr",
      "er",
      "zeit",
      "polizei",
      "mensch",
      "hashtag",
      "innen",
      "geschichte",
      "neonazi",
      "osten",
      "erfahrung",
      "erinnerung",
      "erinnern",
      "auch",
      "erzahlen",
      "dank",
      "link",
      "jugendliche",
      "schon",
      "geben",
      "teilen",
      "heute",
      "sehen",
      "noafd",
      "westen",
      "problem",
      "finden",
      "gut",
      "fast",
      "bedrohen",
      "anfang",
      "opfer",
      "bekommen",
      "erleben",
      "seite",
      "so",
      "nazi",
      "angst",
      "glatze",
      "machen",
      "mal",
      "gewalt",
      "haben",
      "sagen",
      "jung",
      "text",
      "uberfallen",
      "punk",
      "wichtig",
      "eltern",
      "normal",
      "tag",
      "weg",
      "leute",
      "nur",
      "kennen",
      "rennen",
      "vorbei",
      "helfen",
      "ern",
      "bahn",
      "uberfall",
      "kopf",
      "passieren",
      "einfach",
      "schwer",
      "horen",
      "sitzen",
      "einen",
      "nachts",
      "ende",
      "kommen",
      "auto",
      "leben",
      "raus",
      "fahren",
      "kleinstadt",
      "spat",
      "haar",
      "gluck",
      "stra\u00dfe",
      "lesen",
      "nazi",
      "schreiben",
      "ander"
    ],
    "Freq": [
      174.0,
      117.0,
      107.0,
      95.0,
      91.0,
      92.0,
      64.0,
      79.0,
      76.0,
      55.0,
      70.0,
      54.0,
      66.0,
      49.0,
      62.0,
      43.0,
      43.0,
      44.0,
      40.0,
      40.0,
      41.0,
      52.0,
      37.0,
      49.0,
      37.0,
      38.0,
      49.0,
      35.0,
      47.0,
      33.0,
      174.22276036374987,
      90.90361357617755,
      78.48659038371065,
      92.07758722549566,
      76.3413548360844,
      70.06161659778795,
      65.4597507034003,
      62.24145072554777,
      94.45460232126621,
      49.31400464369138,
      51.77669747300428,
      38.461460780224535,
      34.62248153018856,
      41.98371797514158,
      37.38942767463761,
      44.37883771147879,
      33.94034936161183,
      48.46550801705106,
      34.55821068350335,
      37.817974428607904,
      36.2104705442155,
      38.45561409796254,
      46.63166726855995,
      27.10850615707865,
      23.01386629662909,
      34.399364105292506,
      40.33742273405894,
      26.223100153016976,
      30.7185137720395,
      21.23573464380263,
      25.568781128728656,
      35.30749187239383,
      36.97753769184978,
      34.210478628644594,
      33.97515594086341,
      54.02797627916788,
      136.52743828805365,
      53.370824248753465,
      41.43671442737637,
      34.85724464280047,
      106.79519283563351,
      116.20365745736065,
      63.887413520230425,
      36.88734695085856,
      25.515079597627192,
      30.561332866991474,
      27.648327775265223,
      40.1442745008879,
      48.92002946867681,
      32.60214839839205,
      25.168603285152297,
      54.06927447030233,
      22.67822504560551,
      39.889387095560664,
      37.11036159759364,
      34.413302265350126,
      23.749150145882275,
      28.416004815067804,
      23.48548785402114,
      24.906959793406017,
      23.011755107802557,
      18.870329696237587,
      22.89680903316904,
      42.254309564055404,
      22.182001507893272,
      22.654260797555036,
      37.16471074237792,
      21.422955301609257,
      20.70709413142135,
      21.705513233281422,
      52.398535251088354,
      42.631954833247555,
      40.48481582913115,
      43.213970173190475,
      23.17023811946964,
      27.635500883200077,
      29.873821330220775,
      25.238487518689958,
      28.748701427676146,
      41.47319237792241,
      39.027596105041695,
      41.372396425194864,
      138.7144105831424,
      26.77439517345404,
      26.973200682012575
    ],
    "Total": [
      174.0,
      117.0,
      107.0,
      95.0,
      91.0,
      92.0,
      64.0,
      79.0,
      76.0,
      55.0,
      70.0,
      54.0,
      66.0,
      49.0,
      62.0,
      43.0,
      43.0,
      44.0,
      40.0,
      40.0,
      41.0,
      52.0,
      37.0,
      49.0,
      37.0,
      38.0,
      49.0,
      35.0,
      47.0,
      33.0,
      174.8296054917135,
      91.43942272172939,
      79.00115926585347,
      92.77533507950267,
      76.93075790919484,
      70.6641948625756,
      66.03573736034222,
      62.808219275696125,
      95.38667787122482,
      49.80749336063131,
      52.32107992733262,
      38.96656763008846,
      35.099602834200596,
      42.56965599444886,
      37.913622642292424,
      45.03808476045385,
      34.460252578359885,
      49.22915446634654,
      35.121048001139556,
      38.45116055075622,
      36.82458353265889,
      39.14795874201637,
      47.47763448551045,
      27.619098565059208,
      23.459059535980572,
      35.06856238801416,
      41.13307744181414,
      26.74678312152824,
      31.357159696397016,
      21.688772663098394,
      26.125611371316165,
      36.19779577785051,
      38.17254993091419,
      35.34496802226765,
      35.186023272165244,
      58.867157454793826,
      275.24184887119605,
      70.81821678065023,
      48.45702545951132,
      37.39764966495902,
      107.58626211953671,
      117.58627736564995,
      64.84735123561448,
      37.5229433396378,
      26.01930857957958,
      31.17161726193066,
      28.220857744883435,
      40.991334314772246,
      49.96377446545734,
      33.31787240701809,
      25.725391125512722,
      55.27337774514144,
      23.188334703070442,
      40.79521304518454,
      37.96989924769389,
      35.21297493906523,
      24.303467810036487,
      29.089592954595407,
      24.05132248635079,
      25.513973700454898,
      23.575721993331545,
      19.33500892306229,
      23.463548975942825,
      43.30435354544889,
      22.738508658887323,
      23.246675642504567,
      38.14002681611025,
      21.98767635112235,
      21.255613809527148,
      22.287966252258034,
      54.052044746035044,
      43.90088272717174,
      41.7088485586855,
      44.940376096306494,
      23.795540748182418,
      28.654799204525226,
      31.124192594890562,
      26.128695628103596,
      30.7350424066202,
      49.161161125725556,
      45.74898280965199,
      50.73118887721843,
      275.24184887119605,
      28.922828360689728,
      36.54036776066618
    ],
    "Category": [
      "Default",
      "Default",
      "Default",
      "Default",
      "Default",
      "Default",
      "Default",
      "Default",
      "Default",
      "Default",
      "Default",
      "Default",
      "Default",
      "Default",
      "Default",
      "Default",
      "Default",
      "Default",
      "Default",
      "Default",
      "Default",
      "Default",
      "Default",
      "Default",
      "Default",
      "Default",
      "Default",
      "Default",
      "Default",
      "Default",
      "Topic1",
      "Topic1",
      "Topic1",
      "Topic1",
      "Topic1",
      "Topic1",
      "Topic1",
      "Topic1",
      "Topic1",
      "Topic1",
      "Topic1",
      "Topic1",
      "Topic1",
      "Topic1",
      "Topic1",
      "Topic1",
      "Topic1",
      "Topic1",
      "Topic1",
      "Topic1",
      "Topic1",
      "Topic1",
      "Topic1",
      "Topic1",
      "Topic1",
      "Topic1",
      "Topic1",
      "Topic1",
      "Topic1",
      "Topic1",
      "Topic1",
      "Topic1",
      "Topic1",
      "Topic1",
      "Topic1",
      "Topic1",
      "Topic1",
      "Topic1",
      "Topic1",
      "Topic1",
      "Topic2",
      "Topic2",
      "Topic2",
      "Topic2",
      "Topic2",
      "Topic2",
      "Topic2",
      "Topic2",
      "Topic2",
      "Topic2",
      "Topic2",
      "Topic2",
      "Topic2",
      "Topic2",
      "Topic2",
      "Topic2",
      "Topic2",
      "Topic2",
      "Topic2",
      "Topic2",
      "Topic2",
      "Topic2",
      "Topic2",
      "Topic2",
      "Topic2",
      "Topic2",
      "Topic2",
      "Topic2",
      "Topic2",
      "Topic2",
      "Topic2",
      "Topic2",
      "Topic2",
      "Topic2",
      "Topic2",
      "Topic2",
      "Topic2",
      "Topic2",
      "Topic2",
      "Topic2",
      "Topic2",
      "Topic2",
      "Topic2",
      "Topic2",
      "Topic2"
    ],
    "logprob": [
      30.0,
      29.0,
      28.0,
      27.0,
      26.0,
      25.0,
      24.0,
      23.0,
      22.0,
      21.0,
      20.0,
      19.0,
      18.0,
      17.0,
      16.0,
      15.0,
      14.0,
      13.0,
      12.0,
      11.0,
      10.0,
      9.0,
      8.0,
      7.0,
      6.0,
      5.0,
      4.0,
      3.0,
      2.0,
      1.0,
      -4.1249,
      -4.7754,
      -4.9223,
      -4.7626,
      -4.95,
      -5.0358,
      -5.1038,
      -5.1542,
      -4.7371,
      -5.387,
      -5.3383,
      -5.6355,
      -5.7407,
      -5.5479,
      -5.6638,
      -5.4924,
      -5.7606,
      -5.4044,
      -5.7426,
      -5.6524,
      -5.6959,
      -5.6357,
      -5.4429,
      -5.9854,
      -6.1491,
      -5.7472,
      -5.5879,
      -6.0186,
      -5.8603,
      -6.2295,
      -6.0438,
      -5.7211,
      -5.6749,
      -5.7527,
      -5.7596,
      -5.2957,
      -4.3687,
      -5.3079,
      -5.561,
      -5.7339,
      -4.416,
      -4.3315,
      -4.9298,
      -5.479,
      -5.8476,
      -5.6671,
      -5.7673,
      -5.3944,
      -5.1967,
      -5.6025,
      -5.8613,
      -5.0966,
      -5.9655,
      -5.4008,
      -5.473,
      -5.5484,
      -5.9193,
      -5.7399,
      -5.9305,
      -5.8717,
      -5.9509,
      -6.1493,
      -5.9559,
      -5.3432,
      -5.9876,
      -5.9665,
      -5.4715,
      -6.0224,
      -6.0564,
      -6.0093,
      -5.128,
      -5.3343,
      -5.386,
      -5.3207,
      -5.944,
      -5.7678,
      -5.6899,
      -5.8585,
      -5.7283,
      -5.3618,
      -5.4226,
      -5.3643,
      -4.1545,
      -5.7994,
      -5.792
    ],
    "loglift": [
      30.0,
      29.0,
      28.0,
      27.0,
      26.0,
      25.0,
      24.0,
      23.0,
      22.0,
      21.0,
      20.0,
      19.0,
      18.0,
      17.0,
      16.0,
      15.0,
      14.0,
      13.0,
      12.0,
      11.0,
      10.0,
      9.0,
      8.0,
      7.0,
      6.0,
      5.0,
      4.0,
      3.0,
      2.0,
      1.0,
      0.5954,
      0.593,
      0.5924,
      0.5913,
      0.5912,
      0.5903,
      0.5901,
      0.5898,
      0.5891,
      0.5889,
      0.5884,
      0.5858,
      0.5852,
      0.585,
      0.585,
      0.5841,
      0.5837,
      0.5833,
      0.5827,
      0.5823,
      0.5821,
      0.5811,
      0.5809,
      0.5802,
      0.5797,
      0.5796,
      0.5794,
      0.5791,
      0.5783,
      0.5778,
      0.5774,
      0.574,
      0.5671,
      0.5663,
      0.5639,
      0.5131,
      -0.1022,
      0.316,
      0.4424,
      0.5285,
      0.7898,
      0.7854,
      0.7823,
      0.7801,
      0.7776,
      0.7774,
      0.7767,
      0.7763,
      0.7761,
      0.7755,
      0.7753,
      0.7752,
      0.775,
      0.7748,
      0.7743,
      0.7742,
      0.7741,
      0.7738,
      0.7734,
      0.7731,
      0.773,
      0.7729,
      0.7728,
      0.7727,
      0.7724,
      0.7714,
      0.7713,
      0.7712,
      0.7711,
      0.7707,
      0.7661,
      0.7679,
      0.7674,
      0.758,
      0.7706,
      0.761,
      0.7562,
      0.7626,
      0.7304,
      0.6272,
      0.6383,
      0.5933,
      0.112,
      0.72,
      0.4936
    ]
  },
  "token.table": {
    "Topic": [
      1,
      2,
      1,
      2,
      1,
      2,
      1,
      2,
      1,
      2,
      1,
      2,
      1,
      1,
      2,
      1,
      2,
      1,
      2,
      1,
      2,
      1,
      2,
      1,
      2,
      1,
      2,
      1,
      2,
      1,
      1,
      2,
      1,
      2,
      1,
      2,
      1,
      2,
      1,
      2,
      1,
      2,
      1,
      2,
      1,
      2,
      1,
      2,
      1,
      2,
      1,
      2,
      1,
      2,
      1,
      2,
      1,
      2,
      1,
      2,
      1,
      2,
      1,
      2,
      1,
      2,
      1,
      2,
      1,
      2,
      1,
      2,
      1,
      2,
      1,
      2,
      1,
      2,
      1,
      2,
      1,
      2,
      1,
      2,
      1,
      2,
      1,
      2,
      1,
      2,
      1,
      2,
      1,
      2,
      1,
      2,
      1,
      2,
      1,
      2,
      1,
      2,
      1,
      2,
      1,
      2,
      1,
      2,
      1,
      2,
      1,
      2,
      1,
      1,
      2,
      1,
      2,
      1,
      2,
      1,
      2,
      1,
      2,
      1,
      2,
      1,
      2,
      1,
      2,
      1,
      2,
      1,
      2,
      1,
      2,
      1,
      2,
      1,
      2,
      1,
      2,
      1,
      2,
      1,
      2,
      1,
      2,
      1,
      2,
      1,
      2,
      2,
      1,
      2,
      1,
      2,
      1,
      2,
      1,
      1,
      2,
      1,
      2
    ],
    "Freq": [
      0.27366993308601795,
      0.7389088193322484,
      0.9951920217471322,
      0.038276616221043544,
      0.7483950092129582,
      0.24005122937019413,
      0.9866182617373478,
      0.023490910993746377,
      0.023975727802530256,
      0.9590291121012102,
      0.04241651646057129,
      0.9755798785931397,
      0.9682428935100471,
      0.9692829026869753,
      0.02619683520775609,
      0.9769509568185424,
      0.022203430836785054,
      0.04704639484707716,
      0.9879742917886203,
      0.04397825798523295,
      0.9675216756751249,
      0.030013921290765237,
      0.9904594025952529,
      0.03700137542246649,
      0.9620357609841287,
      0.9951943843404759,
      0.010936202025719516,
      0.9938632779029302,
      0.01911275534428712,
      0.9971622803063873,
      0.975194950726373,
      0.02566302501911508,
      0.961947397394155,
      0.028292570511592795,
      0.03919420830876574,
      0.9798552077191436,
      0.9759025231929886,
      0.02637574387008077,
      0.034898168117055865,
      0.9771487072775642,
      0.9886099474615982,
      0.03189064346650317,
      0.972453375427186,
      0.024311334385679652,
      0.9882666597238156,
      0.026007017361153042,
      0.9871319504832886,
      0.015921483072311105,
      0.008504393730319132,
      0.9865096727170194,
      0.846110540446976,
      0.1444578971494837,
      0.16273008645057568,
      0.8339916930592003,
      0.9720795163240712,
      0.037387673704771966,
      0.06507230325373517,
      0.94354839717916,
      0.015420830318367655,
      0.9869331403755299,
      0.9906006873230878,
      0.014151438390329826,
      0.04157775525930033,
      0.9562883709639077,
      0.9706764087092924,
      0.02554411601866559,
      0.026219174014256396,
      0.9701094385274867,
      0.9843155024575491,
      0.015143315422423831,
      0.995254776847547,
      0.0057198550393537185,
      0.9750319809537497,
      0.020313166269869783,
      0.03843299667020429,
      0.9992579134253117,
      0.028398622999915902,
      0.9655531819971407,
      0.03212934751483844,
      0.9638804254451532,
      0.022778585255668816,
      0.9794791659937591,
      0.04261929859908661,
      0.980243867778992,
      0.04450341037898821,
      0.9568233231482465,
      0.17740565910612002,
      0.8081813359278801,
      0.024512679928706486,
      0.9805071971482594,
      0.9866439580698573,
      0.029018939943231094,
      0.9358876911667104,
      0.08021894495714661,
      0.009294867023904243,
      0.994550771557754,
      0.9879013552642565,
      0.012998702042950743,
      0.044867261044900776,
      0.9870797429878171,
      0.4977440769339963,
      0.5050104138235437,
      0.9854625624649924,
      0.010483644281542472,
      0.9775844036473216,
      0.03620682976471561,
      0.03887210091854607,
      0.9718025229636518,
      0.026336651395268983,
      0.9744561016249524,
      0.9669097039719904,
      0.02762599154205687,
      0.9837877133309108,
      0.02309236642801924,
      0.9698793899768082,
      0.991642874921031,
      0.010778726901315554,
      0.9695293358139091,
      0.02851556870040909,
      0.024395400069707543,
      0.9758160027883017,
      0.042024680614849375,
      0.9665676541415356,
      0.041146391445711084,
      0.987513394697066,
      0.026650361378864392,
      0.9860633710179825,
      0.9965534057771959,
      0.02847295445077702,
      0.06914953043521452,
      0.933518660875396,
      0.04301690337914747,
      0.9893887777203919,
      0.9899398002725638,
      0.02106254894196944,
      0.9662927730425428,
      0.02842037567772185,
      0.04548002180998792,
      0.9550804580097463,
      0.9173196453636905,
      0.08493700420034171,
      0.0382720980118279,
      0.9568024502956975,
      0.15300886642933534,
      0.8524779701062969,
      0.018091892350253564,
      0.9769621869136925,
      0.9776077974669398,
      0.02715577215185944,
      0.032080465751813336,
      0.9944944383062135,
      0.9826734539200186,
      0.03543478405369533,
      0.9921739535034694,
      0.034376555270500125,
      0.9625435475740035,
      0.04312513221864038,
      0.9918780410287288,
      0.9804314603798807,
      0.020014500719743544,
      0.9807105352674336,
      0.9873272838632103,
      0.012658042100810389
    ],
    "Term": [
      "ander",
      "ander",
      "anfang",
      "anfang",
      "angst",
      "angst",
      "auch",
      "auch",
      "auto",
      "auto",
      "bahn",
      "bahn",
      "bedrohen",
      "bekommen",
      "bekommen",
      "dank",
      "dank",
      "einen",
      "einen",
      "einfach",
      "einfach",
      "eltern",
      "eltern",
      "ende",
      "ende",
      "er",
      "er",
      "erfahrung",
      "erfahrung",
      "erinnern",
      "erinnerung",
      "erinnerung",
      "erleben",
      "erleben",
      "ern",
      "ern",
      "erzahlen",
      "erzahlen",
      "fahren",
      "fahren",
      "fast",
      "fast",
      "finden",
      "finden",
      "geben",
      "geben",
      "geschichte",
      "geschichte",
      "gewalt",
      "gewalt",
      "glatze",
      "glatze",
      "gluck",
      "gluck",
      "gut",
      "gut",
      "haar",
      "haar",
      "haben",
      "haben",
      "hashtag",
      "hashtag",
      "helfen",
      "helfen",
      "heute",
      "heute",
      "horen",
      "horen",
      "innen",
      "innen",
      "jahr",
      "jahr",
      "jugendliche",
      "jugendliche",
      "jung",
      "jung",
      "kennen",
      "kennen",
      "kleinstadt",
      "kleinstadt",
      "kommen",
      "kommen",
      "kopf",
      "kopf",
      "leben",
      "leben",
      "lesen",
      "lesen",
      "leute",
      "leute",
      "link",
      "link",
      "machen",
      "machen",
      "mal",
      "mal",
      "mensch",
      "mensch",
      "nachts",
      "nachts",
      "nazi",
      "nazi",
      "neonazi",
      "neonazi",
      "noafd",
      "noafd",
      "normal",
      "normal",
      "nur",
      "nur",
      "opfer",
      "opfer",
      "osten",
      "passieren",
      "passieren",
      "polizei",
      "polizei",
      "problem",
      "problem",
      "punk",
      "punk",
      "raus",
      "raus",
      "rennen",
      "rennen",
      "sagen",
      "sagen",
      "schon",
      "schon",
      "schreiben",
      "schreiben",
      "schwer",
      "schwer",
      "sehen",
      "sehen",
      "seite",
      "seite",
      "sitzen",
      "sitzen",
      "so",
      "so",
      "spat",
      "spat",
      "stra\u00dfe",
      "stra\u00dfe",
      "tag",
      "tag",
      "teilen",
      "teilen",
      "text",
      "text",
      "uberfall",
      "uberfallen",
      "uberfallen",
      "vorbei",
      "vorbei",
      "weg",
      "weg",
      "westen",
      "wichtig",
      "wichtig",
      "zeit",
      "zeit"
    ]
  },
  "R": 30,
  "lambda.step": 0.01,
  "plot.opts": {
    "xlab": "PC1",
    "ylab": "PC2"
  },
  "topic.order": [
    2,
    1
  ]
}